<svg xmlns="http://www.w3.org/2000/svg" xmlns:xlink="http://www.w3.org/1999/xlink" width="89.364" height="72.683" viewBox="0 0 89.364 72.683">
  <defs>
    <linearGradient id="linear-gradient" x1="0.5" x2="0.5" y2="1" gradientUnits="objectBoundingBox">
      <stop offset="0" stop-color="#51f1fc"/>
      <stop offset="1" stop-color="#5ac9fa"/>
    </linearGradient>
    <linearGradient id="linear-gradient-2" y1="-0.856" x2="0.477" y2="3.399" xlink:href="#linear-gradient"/>
  </defs>
  <g id="noun_Prescription_1125492" transform="translate(0 0)">
    <path id="Path_294" data-name="Path 294" d="M107.875,25.6H21.489A1.407,1.407,0,0,0,20,27.089v69.7a1.407,1.407,0,0,0,1.489,1.489h86.385a1.407,1.407,0,0,0,1.489-1.489v-69.7A1.407,1.407,0,0,0,107.875,25.6Zm-1.489,69.7H22.979V28.579h83.407ZM73.859,82.644h5.66V88.3a1.407,1.407,0,0,0,1.489,1.489h7.149A1.407,1.407,0,0,0,89.647,88.3v-5.66h5.66A1.407,1.407,0,0,0,96.8,81.155V74.006a1.407,1.407,0,0,0-1.489-1.489h-5.66v-5.66a1.407,1.407,0,0,0-1.489-1.489H81.008a1.407,1.407,0,0,0-1.489,1.489v5.66h-5.66a1.407,1.407,0,0,0-1.489,1.489v7.149A1.407,1.407,0,0,0,73.859,82.644ZM75.349,75.5h5.66A1.407,1.407,0,0,0,82.5,74.006v-5.66h4.17v5.66A1.407,1.407,0,0,0,88.157,75.5h5.66v4.17h-5.66a1.407,1.407,0,0,0-1.489,1.489v5.66H82.5v-5.66a1.407,1.407,0,0,0-1.489-1.489h-5.66ZM66.469,45.26a1.407,1.407,0,0,1,1.489-1.489H99.534a1.489,1.489,0,1,1,0,2.979H67.959A1.493,1.493,0,0,1,66.469,45.26Zm0,11.766a1.407,1.407,0,0,1,1.489-1.489H98.847s1.62.138,1.541,1.489-1.541,1.489-1.541,1.489H67.959A1.6,1.6,0,0,1,66.469,57.026ZM28.341,68.644a1.407,1.407,0,0,1,1.489-1.489H70.193l-2.979,2.979H29.83A1.493,1.493,0,0,1,28.341,68.644Zm72.683,0a1.407,1.407,0,0,1-1.489,1.489H96.555l2.979-2.979A1.407,1.407,0,0,1,101.024,68.644ZM28.341,80.261a1.407,1.407,0,0,1,1.489-1.489H59.469c0,.149-.149.3-.149.447l-.3,2.532H29.83A1.493,1.493,0,0,1,28.341,80.261Z" transform="translate(-20 -25.6)" fill="#5DB3B0"/>
    <path id="Path_295" data-name="Path 295" d="M-35.284,14.6H-57.511A1.407,1.407,0,0,0-59,16.089V29.654a1.407,1.407,0,0,0,1.489,1.489h22.226a1.407,1.407,0,0,0,1.489-1.489V16.089A1.407,1.407,0,0,0-35.284,14.6Zm-1.489,13.565H-56.021V17.579h19.248Z" transform="translate(71.603 0.294)" fill="#5DB3B0"/>
  </g>
</svg>
